{
	"info": {
		"_postman_id": "93346ebc-f1f4-43d4-b703-4efac2cb94c9",
		"name": "My API",
		"schema": "https://schema.getpostman.com/json/collection/v2.1.0/collection.json"
	},
	"item": [
		{
			"name": "/Billing/store",
			"request": {
				"auth": {
					"type": "noauth"
				},
				"method": "POST",
				"header": [
					{
						"key": "Content-Type",
						"value": "application/json"
					}
				],
				"body": {
					"mode": "raw",
					"raw": "{\n    \"uniqueCode\": \"1\",\n    \"originalSaleUniqueCode\": null,\n    \"cashBoxId\": 1,\n    \"branchOfficeId\": 1,\n    \"pointOfSaleId\": 0,\n    \"branchOfficeSinId\": 1,\n    \"clientId\": \"1\",\n    \"identityDocumentTypeId\": 1,\n    \"identityDocument\": \"8988607\",\n    \"identityDocumentComplement\": null,\n    \"clientFistName\": \"GONZALO\",\n    \"clientLastName\": \"PEREZ\",\n    \"clientEmail\": \"ernesto_06_05@hotmail.com\",\n    \"clientPhone\": \"75346027\",\n    \"economicActivityTypeId\": 1,\n    \"fiscalDocumentTypeId\": 1,\n    \"emissionDate\": \"2019-03-04T22:27:00\",\n    \"totalDiscountPercent\": 0,\n    \"totalDiscountAmount\": 0,\n    \"subTotalAmount\": 100,\n    \"totalAmount\": 100,\n    \"donationAmount\": 0,\n    \"taxAmount\": 0,\n    \"taxPercent\": 0,\n    \"totalTaxedAmount\": 100,\n    \"emissionTypeId\": 1,\n    \"cashierId\": \"1\",\n    \"cashierUser\": \"ADMIN\",\n    \"sectorDocumentId\": 1,\n    \"turnId\": \"1\",\n    \"contingencyDate\": null,\n    \"keyOrigen\": \"POS\",\n    \"extraInfo\": null,\n    \"generateInvoice\": true,\n    \"invoiceTypeId\": 1,\n    \"originalUniqueCode\": null,\n    \"originalBranchOfficeId\": null,\n    \"originalPointOfSaleId\": null,\n    \"originalCashboxId\": null,\n    \"saleDetail\": [\n        {\n            \"lineId\": 1,\n            \"itemEconomicActivityId\": \"1\",\n            \"itemMeasurementUnitSin\": \"1\",\n            \"itemIdSin\": \"1\",\n            \"itemId\": \"1\",\n            \"itemDescript\": \"Coca Cola\",\n            \"itemMeasurementUnit\": \"1\",\n            \"itemUnitPrice\": 100,\n            \"quantity\": 1,\n            \"subTotalAmount\": 100,\n            \"totalDiscountPercent\": 0,\n            \"totalDiscount\": 0,\n            \"totalAmount\": 100,\n            \"taxAmount\": 100,\n            \"taxPercent\": 0,\n            \"totalTaxedAmount\": 0,\n            \"returnLineId\": null,\n            \"comments\": \"Hola\",\n            \"extraInfo\": null,\n            \"saleDetailTypeId\": 1,\n            \"saleLineDiscount\": []\n        }\n    ],\n    \"salePayment\": [\n        {\n            \"paymentType\": \"BOB_CURRENCY\",\n            \"amount\": 200,\n            \"change\": 100,\n            \"cardNumber\": null,\n            \"clientCode\": null,\n            \"confirmationCode\": null,\n            \"bankName\": null,\n            \"bankCode\": null,\n            \"authCode\": null,\n            \"extraInfo\": null\n        }\n    ],\n    \"saleDiscount\": []\n}"
				},
				"url": {
					"raw": "{{baseUrl}}/billing/store",
					"host": [
						"{{baseUrl}}"
					],
					"path": [
						"billing",
						"store"
					]
				}
			},
			"response": [
				{
					"name": "Success",
					"originalRequest": {
						"method": "POST",
						"header": [],
						"body": {
							"mode": "raw",
							"raw": "{\n    \"uniqueCode\": \"<string>\",\n    \"originalSaleUniqueCode\": \"<string>\",\n    \"cashBoxId\": \"<integer>\",\n    \"branchOfficeId\": \"<integer>\",\n    \"pointOfSaleId\": \"<integer>\",\n    \"branchOfficeSinId\": \"<integer>\",\n    \"clientId\": \"<string>\",\n    \"identityDocumentTypeId\": \"<integer>\",\n    \"identityDocument\": \"<string>\",\n    \"identityDocumentComplement\": \"<string>\",\n    \"clientFistName\": \"<string>\",\n    \"clientLastName\": \"<string>\",\n    \"clientEmail\": \"<string>\",\n    \"clientPhone\": \"<string>\",\n    \"economicActivityTypeId\": \"<integer>\",\n    \"fiscalDocumentTypeId\": \"<integer>\",\n    \"emissionDate\": \"<dateTime>\",\n    \"totalDiscountPercent\": \"<double>\",\n    \"totalDiscountAmount\": \"<double>\",\n    \"subTotalAmount\": \"<double>\",\n    \"totalAmount\": \"<double>\",\n    \"donationAmount\": \"<double>\",\n    \"taxAmount\": \"<double>\",\n    \"taxPercent\": \"<double>\",\n    \"totalTaxedAmount\": \"<double>\",\n    \"emissionTypeId\": \"<integer>\",\n    \"cashierId\": \"<string>\",\n    \"cashierUser\": \"<string>\",\n    \"sectorDocumentId\": \"<integer>\",\n    \"turnId\": \"<string>\",\n    \"contingencyDate\": \"<dateTime>\",\n    \"keyOrigen\": \"<string>\",\n    \"extraInfo\": \"<string>\",\n    \"generateInvoice\": \"<boolean>\",\n    \"invoiceTypeId\": \"<integer>\",\n    \"originalUniqueCode\": \"<string>\",\n    \"originalBranchOfficeId\": \"<integer>\",\n    \"originalPointOfSaleId\": \"<integer>\",\n    \"originalCashboxId\": \"<integer>\",\n    \"saleDetail\": [\n        {\n            \"lineId\": \"<integer>\",\n            \"itemEconomicActivityId\": \"<string>\",\n            \"itemMeasurementUnitSin\": \"<string>\",\n            \"itemIdSin\": \"<string>\",\n            \"itemId\": \"<string>\",\n            \"itemDescript\": \"<string>\",\n            \"itemMeasurementUnit\": \"<string>\",\n            \"itemUnitPrice\": \"<double>\",\n            \"quantity\": \"<integer>\",\n            \"subTotalAmount\": \"<double>\",\n            \"totalDiscountPercent\": \"<double>\",\n            \"totalDiscount\": \"<double>\",\n            \"totalAmount\": \"<double>\",\n            \"taxAmount\": \"<double>\",\n            \"taxPercent\": \"<double>\",\n            \"totalTaxedAmount\": \"<double>\",\n            \"returnLineId\": \"<integer>\",\n            \"comments\": \"<string>\",\n            \"extraInfo\": \"<string>\",\n            \"saleDetailTypeId\": \"<integer>\",\n            \"saleLineDiscount\": [\n                {\n                    \"discountId\": \"<string>\",\n                    \"discountType\": \"<string>\",\n                    \"descript\": \"<string>\",\n                    \"percent\": \"<double>\",\n                    \"amount\": \"<double>\",\n                    \"authUser\": \"<string>\",\n                    \"authName\": \"<string>\",\n                    \"extraInfo\": \"<string>\"\n                },\n                {\n                    \"discountId\": \"<string>\",\n                    \"discountType\": \"<string>\",\n                    \"descript\": \"<string>\",\n                    \"percent\": \"<double>\",\n                    \"amount\": \"<double>\",\n                    \"authUser\": \"<string>\",\n                    \"authName\": \"<string>\",\n                    \"extraInfo\": \"<string>\"\n                }\n            ]\n        },\n        {\n            \"lineId\": \"<integer>\",\n            \"itemEconomicActivityId\": \"<string>\",\n            \"itemMeasurementUnitSin\": \"<string>\",\n            \"itemIdSin\": \"<string>\",\n            \"itemId\": \"<string>\",\n            \"itemDescript\": \"<string>\",\n            \"itemMeasurementUnit\": \"<string>\",\n            \"itemUnitPrice\": \"<double>\",\n            \"quantity\": \"<integer>\",\n            \"subTotalAmount\": \"<double>\",\n            \"totalDiscountPercent\": \"<double>\",\n            \"totalDiscount\": \"<double>\",\n            \"totalAmount\": \"<double>\",\n            \"taxAmount\": \"<double>\",\n            \"taxPercent\": \"<double>\",\n            \"totalTaxedAmount\": \"<double>\",\n            \"returnLineId\": \"<integer>\",\n            \"comments\": \"<string>\",\n            \"extraInfo\": \"<string>\",\n            \"saleDetailTypeId\": \"<integer>\",\n            \"saleLineDiscount\": [\n                {\n                    \"discountId\": \"<string>\",\n                    \"discountType\": \"<string>\",\n                    \"descript\": \"<string>\",\n                    \"percent\": \"<double>\",\n                    \"amount\": \"<double>\",\n                    \"authUser\": \"<string>\",\n                    \"authName\": \"<string>\",\n                    \"extraInfo\": \"<string>\"\n                },\n                {\n                    \"discountId\": \"<string>\",\n                    \"discountType\": \"<string>\",\n                    \"descript\": \"<string>\",\n                    \"percent\": \"<double>\",\n                    \"amount\": \"<double>\",\n                    \"authUser\": \"<string>\",\n                    \"authName\": \"<string>\",\n                    \"extraInfo\": \"<string>\"\n                }\n            ]\n        }\n    ],\n    \"salePayment\": [\n        {\n            \"paymentType\": \"<string>\",\n            \"amount\": \"<double>\",\n            \"change\": \"<double>\",\n            \"cardNumber\": \"<string>\",\n            \"clientCode\": \"<string>\",\n            \"confirmationCode\": \"<string>\",\n            \"bankName\": \"<string>\",\n            \"bankCode\": \"<string>\",\n            \"authCode\": \"<string>\",\n            \"extraInfo\": \"<string>\"\n        },\n        {\n            \"paymentType\": \"<string>\",\n            \"amount\": \"<double>\",\n            \"change\": \"<double>\",\n            \"cardNumber\": \"<string>\",\n            \"clientCode\": \"<string>\",\n            \"confirmationCode\": \"<string>\",\n            \"bankName\": \"<string>\",\n            \"bankCode\": \"<string>\",\n            \"authCode\": \"<string>\",\n            \"extraInfo\": \"<string>\"\n        }\n    ],\n    \"saleDiscount\": [\n        {\n            \"discountId\": \"<string>\",\n            \"discountType\": \"<string>\",\n            \"descript\": \"<string>\",\n            \"percent\": \"<double>\",\n            \"amount\": \"<double>\",\n            \"authUser\": \"<string>\",\n            \"authName\": \"<string>\",\n            \"extraInfo\": \"<string>\"\n        },\n        {\n            \"discountId\": \"<string>\",\n            \"discountType\": \"<string>\",\n            \"descript\": \"<string>\",\n            \"percent\": \"<double>\",\n            \"amount\": \"<double>\",\n            \"authUser\": \"<string>\",\n            \"authName\": \"<string>\",\n            \"extraInfo\": \"<string>\"\n        }\n    ]\n}"
						},
						"url": {
							"raw": "{{baseUrl}}/Billing/store",
							"host": [
								"{{baseUrl}}"
							],
							"path": [
								"Billing",
								"store"
							]
						}
					},
					"status": "OK",
					"code": 200,
					"_postman_previewlanguage": "json",
					"header": [
						{
							"key": "Content-Type",
							"value": "application/json"
						}
					],
					"cookie": [],
					"body": "{\n \"codigo\": \"<integer>\",\n \"data\": {\n  \"saleId\": \"<long>\",\n  \"uniqueCode\": \"<string>\",\n  \"hashCode\": \"<string>\",\n  \"period\": \"<integer>\",\n  \"originalSaleId\": \"<long>\",\n  \"originalSaleUniqueCode\": \"<string>\",\n  \"cashBoxId\": \"<integer>\",\n  \"branchOfficeId\": \"<integer>\",\n  \"pointOfSaleId\": \"<integer>\",\n  \"branchOfficeSinId\": \"<integer>\",\n  \"clientId\": \"<string>\",\n  \"identityDocumentTypeId\": \"<integer>\",\n  \"identityDocument\": \"<string>\",\n  \"identityDocumentComplement\": \"<string>\",\n  \"clientFistName\": \"<string>\",\n  \"clientLastName\": \"<string>\",\n  \"clientEmail\": \"<string>\",\n  \"clientPhone\": \"<string>\",\n  \"economicActivityTypeId\": \"<integer>\",\n  \"fiscalDocumentTypeId\": \"<integer>\",\n  \"emissionDate\": \"<dateTime>\",\n  \"totalDiscountPercent\": \"<double>\",\n  \"totalDiscountAmount\": \"<double>\",\n  \"subTotalAmount\": \"<double>\",\n  \"totalAmount\": \"<double>\",\n  \"donationAmount\": \"<double>\",\n  \"taxAmount\": \"<double>\",\n  \"taxPercent\": \"<double>\",\n  \"totalTaxedAmount\": \"<double>\",\n  \"emissionTypeId\": \"<integer>\",\n  \"cashierId\": \"<string>\",\n  \"cashierUser\": \"<string>\",\n  \"sectorDocumentId\": \"<integer>\",\n  \"turnId\": \"<string>\",\n  \"contingencyDate\": \"<dateTime>\",\n  \"keyOrigen\": \"<string>\",\n  \"extraInfo\": \"<string>\",\n  \"state\": \"<integer>\",\n  \"postVoidDate\": \"<dateTime>\",\n  \"postVoidMotiveId\": \"<integer>\",\n  \"postVoidOtherMotive\": \"<string>\",\n  \"generateInvoice\": \"<boolean>\",\n  \"createDate\": \"<dateTime>\",\n  \"editDate\": \"<dateTime>\",\n  \"invoiceTypeId\": \"<integer>\",\n  \"fiscalDocument\": {\n   \"saleId\": \"<long>\",\n   \"invoiceNumber\": \"<long>\",\n   \"emissionDate\": \"<dateTime>\",\n   \"controlCode\": \"<string>\",\n   \"dosageKey\": \"<string>\",\n   \"autorizationNumber\": \"<long>\",\n   \"deadlineEmissionDate\": \"<dateTime>\",\n   \"identityDocumentTypeId\": \"<integer>\",\n   \"identityDocument\": \"<string>\",\n   \"identityComplement\": \"<string>\",\n   \"firstClientName\": \"<string>\",\n   \"lastClientName\": \"<string>\",\n   \"fiscalDocumentTypeId\": \"<integer>\",\n   \"economicActivityId\": \"<integer>\",\n   \"cuf\": \"<string>\",\n   \"cufd\": \"<string>\",\n   \"cuis\": \"<string>\",\n   \"companyLeyend\": \"<string>\",\n   \"companyAddress\": \"<string>\",\n   \"companyPhone\": \"<string>\",\n   \"companyNit\": \"<string>\",\n   \"documentFiscalTitle\": \"<string>\",\n   \"qrLeyend\": \"<string>\",\n   \"qrBuffer\": \"<string>\",\n   \"economicActivityLeyend\": \"<string>\",\n   \"branchOfficeLeyend\": \"<string>\",\n   \"fiscalDocumentLeyend\": \"<string>\",\n   \"invoiceLeyend\": \"<string>\",\n   \"invoiceStateLeyend\": \"<string>\",\n   \"state\": \"<integer>\",\n   \"postVoidDate\": \"<dateTime>\",\n   \"postVoidMotiveId\": \"<integer>\"\n  },\n  \"fiscalDocumentCreDe\": {\n   \"saleId\": \"<long>\",\n   \"originalUniqueCode\": \"<string>\",\n   \"originalBranchOfficeId\": \"<integer>\",\n   \"originalPointOfSaleId\": \"<integer>\",\n   \"originalCashboxId\": \"<integer>\",\n   \"originalEmissionDate\": \"<dateTime>\",\n   \"originalInvoiceNumber\": \"<long>\",\n   \"originalTotalTaxedAmount\": \"<double>\",\n   \"originalTotalAmount\": \"<double>\",\n   \"originalAutorizationNumber\": \"<long>\",\n   \"originalControlCode\": \"<string>\",\n   \"originalDosageKey\": \"<string>\",\n   \"originalCuf\": \"<string>\",\n   \"originalCufd\": \"<string>\",\n   \"originalCuis\": \"<string>\"\n  },\n  \"saleDetail\": [\n   {\n    \"saleDetailId\": \"<long>\",\n    \"saleId\": \"<long>\",\n    \"lineId\": \"<integer>\",\n    \"itemEconomicActivityId\": \"<string>\",\n    \"itemMeasurementUnitSin\": \"<string>\",\n    \"itemIdSin\": \"<string>\",\n    \"itemId\": \"<string>\",\n    \"itemDescript\": \"<string>\",\n    \"itemMeasurementUnit\": \"<string>\",\n    \"itemUnitPrice\": \"<double>\",\n    \"quantity\": \"<integer>\",\n    \"subTotalAmount\": \"<double>\",\n    \"totalDiscountPercent\": \"<double>\",\n    \"totalDiscount\": \"<double>\",\n    \"totalAmount\": \"<double>\",\n    \"taxAmount\": \"<double>\",\n    \"taxPercent\": \"<double>\",\n    \"totalTaxedAmount\": \"<double>\",\n    \"returnLineId\": \"<integer>\",\n    \"comments\": \"<string>\",\n    \"extraInfo\": \"<string>\",\n    \"saleDetailTypeId\": \"<integer>\",\n    \"saleLineDiscount\": [\n     {\n      \"saleLineDiscountId\": \"<long>\",\n      \"saleDetailId\": \"<long>\",\n      \"discountId\": \"<string>\",\n      \"discountType\": \"<string>\",\n      \"descript\": \"<string>\",\n      \"percent\": \"<double>\",\n      \"amount\": \"<double>\",\n      \"authUser\": \"<string>\",\n      \"authName\": \"<string>\",\n      \"extraInfo\": \"<string>\"\n     },\n     {\n      \"saleLineDiscountId\": \"<long>\",\n      \"saleDetailId\": \"<long>\",\n      \"discountId\": \"<string>\",\n      \"discountType\": \"<string>\",\n      \"descript\": \"<string>\",\n      \"percent\": \"<double>\",\n      \"amount\": \"<double>\",\n      \"authUser\": \"<string>\",\n      \"authName\": \"<string>\",\n      \"extraInfo\": \"<string>\"\n     }\n    ]\n   },\n   {\n    \"saleDetailId\": \"<long>\",\n    \"saleId\": \"<long>\",\n    \"lineId\": \"<integer>\",\n    \"itemEconomicActivityId\": \"<string>\",\n    \"itemMeasurementUnitSin\": \"<string>\",\n    \"itemIdSin\": \"<string>\",\n    \"itemId\": \"<string>\",\n    \"itemDescript\": \"<string>\",\n    \"itemMeasurementUnit\": \"<string>\",\n    \"itemUnitPrice\": \"<double>\",\n    \"quantity\": \"<integer>\",\n    \"subTotalAmount\": \"<double>\",\n    \"totalDiscountPercent\": \"<double>\",\n    \"totalDiscount\": \"<double>\",\n    \"totalAmount\": \"<double>\",\n    \"taxAmount\": \"<double>\",\n    \"taxPercent\": \"<double>\",\n    \"totalTaxedAmount\": \"<double>\",\n    \"returnLineId\": \"<integer>\",\n    \"comments\": \"<string>\",\n    \"extraInfo\": \"<string>\",\n    \"saleDetailTypeId\": \"<integer>\",\n    \"saleLineDiscount\": [\n     {\n      \"saleLineDiscountId\": \"<long>\",\n      \"saleDetailId\": \"<long>\",\n      \"discountId\": \"<string>\",\n      \"discountType\": \"<string>\",\n      \"descript\": \"<string>\",\n      \"percent\": \"<double>\",\n      \"amount\": \"<double>\",\n      \"authUser\": \"<string>\",\n      \"authName\": \"<string>\",\n      \"extraInfo\": \"<string>\"\n     },\n     {\n      \"saleLineDiscountId\": \"<long>\",\n      \"saleDetailId\": \"<long>\",\n      \"discountId\": \"<string>\",\n      \"discountType\": \"<string>\",\n      \"descript\": \"<string>\",\n      \"percent\": \"<double>\",\n      \"amount\": \"<double>\",\n      \"authUser\": \"<string>\",\n      \"authName\": \"<string>\",\n      \"extraInfo\": \"<string>\"\n     }\n    ]\n   }\n  ],\n  \"saleDiscount\": [\n   {\n    \"saleDiscountId\": \"<long>\",\n    \"saleId\": \"<long>\",\n    \"discountId\": \"<string>\",\n    \"discountType\": \"<string>\",\n    \"descript\": \"<string>\",\n    \"percent\": \"<double>\",\n    \"amount\": \"<double>\",\n    \"authUser\": \"<string>\",\n    \"authName\": \"<string>\",\n    \"extraInfo\": \"<string>\"\n   },\n   {\n    \"saleDiscountId\": \"<long>\",\n    \"saleId\": \"<long>\",\n    \"discountId\": \"<string>\",\n    \"discountType\": \"<string>\",\n    \"descript\": \"<string>\",\n    \"percent\": \"<double>\",\n    \"amount\": \"<double>\",\n    \"authUser\": \"<string>\",\n    \"authName\": \"<string>\",\n    \"extraInfo\": \"<string>\"\n   }\n  ],\n  \"salePayment\": [\n   {\n    \"salePaymentId\": \"<long>\",\n    \"saleId\": \"<long>\",\n    \"paymentType\": \"<string>\",\n    \"amount\": \"<double>\",\n    \"change\": \"<double>\",\n    \"cardNumber\": \"<string>\",\n    \"clientCode\": \"<string>\",\n    \"confirmationCode\": \"<string>\",\n    \"bankName\": \"<string>\",\n    \"bankCode\": \"<string>\",\n    \"authCode\": \"<string>\",\n    \"extraInfo\": \"<string>\"\n   },\n   {\n    \"salePaymentId\": \"<long>\",\n    \"saleId\": \"<long>\",\n    \"paymentType\": \"<string>\",\n    \"amount\": \"<double>\",\n    \"change\": \"<double>\",\n    \"cardNumber\": \"<string>\",\n    \"clientCode\": \"<string>\",\n    \"confirmationCode\": \"<string>\",\n    \"bankName\": \"<string>\",\n    \"bankCode\": \"<string>\",\n    \"authCode\": \"<string>\",\n    \"extraInfo\": \"<string>\"\n   }\n  ]\n },\n \"mensaje\": \"<string>\",\n \"errores\": [\n  \"<string>\",\n  \"<string>\"\n ]\n}"
				}
			]
		}
	],
	"event": [
		{
			"listen": "prerequest",
			"script": {
				"id": "b702a89a-c27b-4770-a85c-776bc932c41a",
				"type": "text/javascript",
				"exec": [
					""
				]
			}
		},
		{
			"listen": "test",
			"script": {
				"id": "3102701b-f71e-4512-9cfc-9098f0b92d97",
				"type": "text/javascript",
				"exec": [
					""
				]
			}
		}
	],
	"variable": [
		{
			"id": "96019ecc-30c0-4057-ba2f-78c91b98cdae",
			"key": "baseUrl",
			"value": "http://localhost/BillingApi.WebApi",
			"type": "string"
		}
	],
	"protocolProfileBehavior": {}
}